Mueller_ds202_lab4
…
5. How many players are there from each state?

tidybio %>%
  group_by(State) %>% count(State)

## # A tibble: 39 x 2
## # Groups:   State [39]
##    State         n
##    <chr>     <int>
##  1 Ariz          4
##  2 Australia     1
##  3 Beach         1
##  4 Bluffs        1
##  5 Calif         1
##  6 Center        1
##  7 City          3
##  8 Des           3
##  9 Fallon        1
## 10 Falls         1
## #  with 29 more rows
…
## [1] 229.1667

mean(defoff$Passing_YDS, na.rm=TRUE) 

## [1] 125.6906

The average performance of Brock Purdy (measured by passing yards) is significantly higher than the average performance of the ISU team.

3. Which ISU player(s) made the biggest progress over the last year? Compare the player-level statistics (i.e.averages and totals for each player) using both the 2020 and the 2019 data here. Choose for yourself the player statistics to investigate.

defense %>%
  group_by(Name) %>% count(Tackles_Solo)

## # A tibble: 109 x 3
## # Groups:   Name [37]
##    Name           Tackles_Solo     n
##    <chr>                 <dbl> <int>
##  1 Akers, Landen             0     9
##  2 Akers, Landen             1     3
##  3 Azunna, Arnold            0     1
##  4 Azunna, Arnold            1     5
##  5 Azunna, Arnold            2     1
##  6 Azunna, Arnold            4     2
##  7 Bailey, JaQuan            0     3
##  8 Bailey, JaQuan            1     2
##  9 Bailey, JaQuan            2     4
## 10 Bailey, JaQuan            3     2
## #  with 99 more rows

offense %>%
  group_by(Name) %>% count(Passing_YDS)

## # A tibble: 30 x 3
## # Groups:   Name [16]
##    Name               Passing_YDS     n
##    <chr>                    <dbl> <int>
##  1 Akers, Landen               NA    12
##  2 Allen, Chase                NA    11
##  3 Bitter, Aidan               NA     5
##  4 Brock, Jirehl               NA    10
##  5 Dean, Easton                NA    12
##  6 Dekkers, Hunter              0     1
##  7 Dekkers, Hunter             55     1
##  8 Dekkers, Hunter             63     1
##  9 Hall, Breece                NA    12
## 10 Hutchinson, Xavier          NA    12
## #  with 20 more rows
…
defense2019 %>%
  group_by(Name) %>% count(Tackles_Solo)

## # A tibble: 135 x 3
## # Groups:   Name [43]
##    Name           Tackles_Solo     n
##    <chr>          <chr>        <int>
##  1 Akers, Landen  0                5
##  2 Akers, Landen  1                7
##  3 Akers, Landen  2                1
##  4 Allen, Chase   0               11
##  5 Allen, Chase   1                2
##  6 Azunna, Arnold 0                1
##  7 Azunna, Arnold 1                3
##  8 Azunna, Arnold 2                6
##  9 Azunna, Arnold 3                1
## 10 Bailey, JaQuan 0                2
## #  with 125 more rows

offense2019 %>%
  group_by(Name) %>% count(Passing_YDS)

## # A tibble: 32 x 3
## # Groups:   Name [17]
##    Name                Passing_YDS     n
##    <chr>               <chr>       <int>
##  1 Akers, Landen       <NA>           13
##  2 Allen, Chase        <NA>           13
##  3 Brock, Jirehl       <NA>            4
##  4 Croney Jr., Sheldon <NA>           12
##  5 Hall, Breece        <NA>           12
##  6 Jones, Deshaunte    0              12
##  7 Jones, Deshaunte    51              1
##  8 Kolar, Charlie      <NA>           13
##  9 Lang, Johnnie       <NA>           12
## 10 Milton, Tarique     <NA>           13
## #  with 22 more rows
…
